<?xml version="1.0" encoding="UTF-8"?>
<svg width="107px" height="23px" viewBox="0 0 107 23" version="1.1" xmlns="http://www.w3.org/2000/svg" xmlns:xlink="http://www.w3.org/1999/xlink">
    <!-- Generator: Sketch 48.2 (47327) - http://www.bohemiancoding.com/sketch -->
    <title>Logo (Rounded)</title>
    <desc>Created with Sketch.</desc>
    <defs></defs>
    <g id="icons" stroke="none" stroke-width="1" fill="none" fill-rule="evenodd">
        <g id="Logo-(Rounded)">
            <rect id="Rectangle-15" fill="#50A069" x="3" y="2" width="4" height="12" rx="1"></rect>
            <rect id="Rectangle-16" fill="#B49664" x="10" y="0" width="4" height="14" rx="1"></rect>
            <rect id="Rectangle-17" fill="#636B91" x="17" y="2" width="4" height="12" rx="1"></rect>
            <rect id="Rectangle-18" fill="#5E5E5E" x="0" y="16" width="24" height="3" rx="1"></rect>
            <rect id="Rectangle-19" fill="#5E5E5E" x="5" y="18" width="3" height="5" rx="1"></rect>
            <rect id="Rectangle-19" fill="#5E5E5E" x="16" y="18" width="3" height="5" rx="1"></rect>
            <path d="M40.7,16.622 L37.388,17.126 L33.212,11.222 L33.212,17 L30.134,17 L30.134,4.58 L33.212,4.58 L33.212,9.89 L37.118,4.58 L40.538,4.58 L36.146,10.322 L40.7,16.622 Z M48.782,12.572 C48.782,12.7040007 48.779,12.8359993 48.773,12.968 C48.767,13.1000007 48.7520001,13.2019996 48.728,13.274 L43.436,13.274 C43.5080004,13.9700035 43.7359981,14.4649985 44.12,14.759 C44.5040019,15.0530015 44.995997,15.2 45.596,15.2 C46.0880025,15.2 46.5709976,15.1160008 47.045,14.948 C47.5190024,14.7799992 48.0019975,14.5580014 48.494,14.282 L48.764,16.19 C48.2839976,16.5020016 47.7530029,16.7449991 47.171,16.919 C46.5889971,17.0930009 45.9500035,17.18 45.254,17.18 C44.5939967,17.18 43.9850028,17.0900009 43.427,16.91 C42.8689972,16.7299991 42.389002,16.4540019 41.987,16.082 C41.584998,15.7099981 41.2730011,15.2390029 41.051,14.669 C40.8289989,14.0989971 40.718,13.418004 40.718,12.626 C40.718,11.9059964 40.8229989,11.2610029 41.033,10.691 C41.2430011,10.1209972 41.5309982,9.63500201 41.897,9.233 C42.2630018,8.83099799 42.7009975,8.52500105 43.211,8.315 C43.7210026,8.10499895 44.275997,8 44.876,8 C45.5480034,8 46.1299975,8.11699883 46.622,8.351 C47.1140025,8.58500117 47.5189984,8.90899793 47.837,9.323 C48.1550016,9.73700207 48.3919992,10.2229972 48.548,10.781 C48.7040008,11.3390028 48.782,11.9359968 48.782,12.572 Z M46.19,11.78 C46.0939995,10.4359933 45.6320041,9.764 44.804,9.764 C44.4199981,9.764 44.1050012,9.92899835 43.859,10.259 C43.6129988,10.5890017 43.4660002,11.0959966 43.418,11.78 L46.19,11.78 Z M57.872,12.572 C57.872,12.7040007 57.869,12.8359993 57.863,12.968 C57.857,13.1000007 57.8420001,13.2019996 57.818,13.274 L52.526,13.274 C52.5980004,13.9700035 52.8259981,14.4649985 53.21,14.759 C53.5940019,15.0530015 54.085997,15.2 54.686,15.2 C55.1780025,15.2 55.6609976,15.1160008 56.135,14.948 C56.6090024,14.7799992 57.0919975,14.5580014 57.584,14.282 L57.854,16.19 C57.3739976,16.5020016 56.8430029,16.7449991 56.261,16.919 C55.6789971,17.0930009 55.0400035,17.18 54.344,17.18 C53.6839967,17.18 53.0750028,17.0900009 52.517,16.91 C51.9589972,16.7299991 51.479002,16.4540019 51.077,16.082 C50.674998,15.7099981 50.3630011,15.2390029 50.141,14.669 C49.9189989,14.0989971 49.808,13.418004 49.808,12.626 C49.808,11.9059964 49.912999,11.2610029 50.123,10.691 C50.3330011,10.1209972 50.6209982,9.63500201 50.987,9.233 C51.3530018,8.83099799 51.7909975,8.52500105 52.301,8.315 C52.8110025,8.10499895 53.365997,8 53.966,8 C54.6380034,8 55.2199975,8.11699883 55.712,8.351 C56.2040025,8.58500117 56.6089984,8.90899793 56.927,9.323 C57.2450016,9.73700207 57.4819992,10.2229972 57.638,10.781 C57.7940008,11.3390028 57.872,11.9359968 57.872,12.572 Z M55.28,11.78 C55.1839995,10.4359933 54.7220041,9.764 53.894,9.764 C53.5099981,9.764 53.1950012,9.92899835 52.949,10.259 C52.7029988,10.5890017 52.5560002,11.0959966 52.508,11.78 L55.28,11.78 Z M67.61,12.356 C67.61,13.1960042 67.508001,13.912997 67.304,14.507 C67.099999,15.101003 66.8270017,15.5899981 66.485,15.974 C66.1429983,16.3580019 65.7470023,16.6399991 65.297,16.82 C64.8469978,17.0000009 64.3820024,17.09 63.902,17.09 C63.505998,17.09 63.1610015,17.0600003 62.867,17 C62.5729985,16.9399997 62.3000013,16.8680004 62.048,16.784 L62.048,19.934 L59.33,20.348 L59.33,8.18 L61.724,8.18 L61.904,9.35 C62.0600008,9.18199916 62.2249991,9.01700081 62.399,8.855 C62.5730009,8.69299919 62.764999,8.54900063 62.975,8.423 C63.1850011,8.29699937 63.4099988,8.19500039 63.65,8.117 C63.8900012,8.03899961 64.1539986,8 64.442,8 C64.8980023,8 65.3179981,8.08699913 65.702,8.261 C66.0860019,8.43500087 66.4189986,8.7019982 66.701,9.062 C66.9830014,9.4220018 67.2049992,9.87499727 67.367,10.421 C67.5290008,10.9670027 67.61,11.6119963 67.61,12.356 Z M64.892,12.536 C64.892,11.7919963 64.7660013,11.2550016 64.514,10.925 C64.2619987,10.5949983 63.9440019,10.43 63.56,10.43 C63.2599985,10.43 62.9900012,10.5109992 62.75,10.673 C62.5099988,10.8350008 62.2760011,11.0539986 62.048,11.33 L62.048,14.678 C62.240001,14.7740005 62.4259991,14.8429998 62.606,14.885 C62.7860009,14.9270002 63.0139986,14.948 63.29,14.948 C63.7460023,14.948 64.1269985,14.7620019 64.433,14.39 C64.7390015,14.0179981 64.892,13.4000043 64.892,12.536 Z M76.016,14.282 C76.016,15.2180047 75.7070031,15.9289976 75.089,16.415 C74.4709969,16.9010024 73.5740059,17.144 72.398,17.144 C71.6899965,17.144 71.0210032,17.0570009 70.391,16.883 C69.7609968,16.7089991 69.2180023,16.5020012 68.762,16.262 L69.086,14.192 C69.6140026,14.5160016 70.174997,14.7709991 70.769,14.957 C71.363003,15.1430009 71.9119975,15.236 72.416,15.236 C73.1600037,15.236 73.532,15.0140022 73.532,14.57 C73.532,14.4619995 73.5110002,14.3660004 73.469,14.282 C73.4269998,14.1979996 73.3520005,14.1200004 73.244,14.048 C73.1359995,13.9759996 72.986001,13.9040004 72.794,13.832 C72.601999,13.7599996 72.3500016,13.6880004 72.038,13.616 C71.4859972,13.4719993 71.012002,13.3220008 70.616,13.166 C70.219998,13.0099992 69.8930013,12.8240011 69.635,12.608 C69.3769987,12.3919989 69.1880006,12.1400014 69.068,11.852 C68.9479994,11.5639986 68.888,11.2100021 68.888,10.79 C68.888,9.96199586 69.1789971,9.29900249 69.761,8.801 C70.3430029,8.30299751 71.1799945,8.054 72.272,8.054 C72.872003,8.054 73.4509972,8.11099943 74.009,8.225 C74.5670028,8.33900057 75.0739977,8.49799898 75.53,8.702 L75.188,10.772 C74.7079976,10.5079987 74.2100026,10.3040007 73.694,10.16 C73.1779974,10.0159993 72.7100021,9.944 72.29,9.944 C71.9659984,9.944 71.7290008,9.99799946 71.579,10.106 C71.4289993,10.2140005 71.354,10.3519992 71.354,10.52 C71.354,10.6160005 71.3749998,10.6999996 71.417,10.772 C71.4590002,10.8440004 71.5339995,10.9129997 71.642,10.979 C71.7500005,11.0450003 71.899999,11.1139996 72.092,11.186 C72.284001,11.2580004 72.5359984,11.3359996 72.848,11.42 C73.4360029,11.5760008 73.930998,11.7379992 74.333,11.906 C74.735002,12.0740008 75.0619987,12.2659989 75.314,12.482 C75.5660013,12.6980011 75.7459995,12.9499986 75.854,13.238 C75.9620005,13.5260014 76.016,13.873998 76.016,14.282 Z M85.322,17 L82.586,17 L82.586,11.474 C82.586,11.1619984 82.5170007,10.907001 82.379,10.709 C82.2409993,10.510999 82.0100016,10.412 81.686,10.412 C81.4219987,10.412 81.1670012,10.4839993 80.921,10.628 C80.6749988,10.7720007 80.4320012,10.9639988 80.192,11.204 L80.192,17 L77.474,17 L77.474,4.436 L80.192,4.004 L80.192,9.278 C80.5640019,8.9179982 80.9599979,8.61500123 81.38,8.369 C81.8000021,8.12299877 82.2799973,8 82.82,8 C83.6480041,8 84.2719979,8.2399976 84.692,8.72 C85.1120021,9.2000024 85.322,9.87199568 85.322,10.736 L85.322,17 Z M94.772,12.572 C94.772,12.7040007 94.769,12.8359993 94.763,12.968 C94.757,13.1000007 94.7420001,13.2019996 94.718,13.274 L89.426,13.274 C89.4980004,13.9700035 89.7259981,14.4649985 90.11,14.759 C90.4940019,15.0530015 90.985997,15.2 91.586,15.2 C92.0780025,15.2 92.5609976,15.1160008 93.035,14.948 C93.5090024,14.7799992 93.9919975,14.5580014 94.484,14.282 L94.754,16.19 C94.2739976,16.5020016 93.7430029,16.7449991 93.161,16.919 C92.5789971,17.0930009 91.9400035,17.18 91.244,17.18 C90.5839967,17.18 89.9750028,17.0900009 89.417,16.91 C88.8589972,16.7299991 88.379002,16.4540019 87.977,16.082 C87.574998,15.7099981 87.2630011,15.2390029 87.041,14.669 C86.8189989,14.0989971 86.708,13.418004 86.708,12.626 C86.708,11.9059964 86.812999,11.2610029 87.023,10.691 C87.2330011,10.1209972 87.5209982,9.63500201 87.887,9.233 C88.2530018,8.83099799 88.6909974,8.52500105 89.201,8.315 C89.7110026,8.10499895 90.265997,8 90.866,8 C91.5380034,8 92.1199975,8.11699883 92.612,8.351 C93.1040025,8.58500117 93.5089984,8.90899793 93.827,9.323 C94.1450016,9.73700207 94.3819992,10.2229972 94.538,10.781 C94.6940008,11.3390028 94.772,11.9359968 94.772,12.572 Z M92.18,11.78 C92.0839995,10.4359933 91.6220041,9.764 90.794,9.764 C90.4099981,9.764 90.0950012,9.92899835 89.849,10.259 C89.6029988,10.5890017 89.4560002,11.0959966 89.408,11.78 L92.18,11.78 Z M99.02,17 L96.284,17 L96.284,4.436 L99.02,4.004 L99.02,17 Z M106.238,6.344 C106.105999,6.31999988 105.959001,6.30200006 105.797,6.29 C105.634999,6.27799994 105.458001,6.272 105.266,6.272 C104.545996,6.272 104.186,6.6319964 104.186,7.352 L104.186,8.18 L105.788,8.18 L106.112,10.394 L104.186,10.394 L104.186,17 L101.468,17 L101.468,10.394 L100.244,10.394 L100.244,8.18 L101.468,8.18 L101.468,7.082 C101.468,6.02599472 101.770997,5.27600222 102.377,4.832 C102.983003,4.38799778 103.795995,4.166 104.816,4.166 C105.032001,4.166 105.229999,4.17499991 105.41,4.193 C105.590001,4.21100009 105.757999,4.23199988 105.914,4.256 L106.238,6.344 Z" id="Keepshelf" fill="#5E5E5E"></path>
        </g>
    </g>
</svg>