<?xml version="1.0" encoding="UTF-8"?>
<svg width="16px" height="13px" viewBox="0 0 16 13" version="1.1" xmlns="http://www.w3.org/2000/svg" xmlns:xlink="http://www.w3.org/1999/xlink">
    <!-- Generator: Sketch 48.2 (47327) - http://www.bohemiancoding.com/sketch -->
    <title>folder-add - anticon</title>
    <desc>Created with Sketch.</desc>
    <defs></defs>
    <g id="icons" stroke="none" stroke-width="1" fill="none" fill-rule="evenodd" transform="translate(-27.000000, -3.000000)">
        <path d="M42.4375,12 C42.5937508,12 42.726562,12.054687 42.8359375,12.1640625 C42.945313,12.273438 43,12.4062492 43,12.5625 C43,12.7187508 42.945313,12.851562 42.8359375,12.9609375 C42.726562,13.070313 42.5937508,13.125 42.4375,13.125 L40,13.125 L40,15.4375 C40,15.5937508 39.945313,15.726562 39.8359375,15.8359375 C39.726562,15.945313 39.5937508,16 39.4375,16 C39.2812492,16 39.148438,15.945313 39.0390625,15.8359375 C38.929687,15.726562 38.875,15.5937508 38.875,15.4375 L38.875,13.125 L36.5625,13.125 C36.4062492,13.125 36.273438,13.070313 36.1640625,12.9609375 C36.054687,12.851562 36,12.7187508 36,12.5625 C36,12.4062492 36.054687,12.273438 36.1640625,12.1640625 C36.273438,12.054687 36.4062492,12 36.5625,12 L38.875,12 L38.875,9.5625 C38.875,9.40624922 38.929687,9.27343805 39.0390625,9.1640625 C39.148438,9.05468695 39.2812492,9 39.4375,9 C39.5937508,9 39.726562,9.05468695 39.8359375,9.1640625 C39.945313,9.27343805 40,9.40624922 40,9.5625 L40,12 L42.4375,12 Z M41.875,5 C42.1875016,5 42.4531239,5.10937391 42.671875,5.328125 C42.8906261,5.54687609 43,5.81249844 43,6.125 L43,8.4375 C43,8.59375078 42.945313,8.72656195 42.8359375,8.8359375 C42.726562,8.94531305 42.5937508,9 42.4375,9 C42.2812492,9 42.148438,8.94531305 42.0390625,8.8359375 C41.929687,8.72656195 41.875,8.59375078 41.875,8.4375 L41.875,6.125 L28.125,6.125 L28.125,14.875 L35.4375,14.875 C35.5937508,14.875 35.726562,14.929687 35.8359375,15.0390625 C35.945313,15.148438 36,15.2812492 36,15.4375 C36,15.5937508 35.945313,15.726562 35.8359375,15.8359375 C35.726562,15.945313 35.5937508,16 35.4375,16 L28.125,16 C27.8124984,16 27.5468761,15.8906261 27.328125,15.671875 C27.1093739,15.4531239 27,15.1875016 27,14.875 L27,4.125 C27,3.81249844 27.1093739,3.54687609 27.328125,3.328125 C27.5468761,3.10937391 27.8124984,3 28.125,3 L33.171875,3 C33.4218762,3 33.6458323,3.07291594 33.84375,3.21875 C34.0416677,3.36458406 34.177083,3.55208219 34.25,3.78125 L34.640625,5 L41.875,5 Z M28.125,5 L33.453125,5 L33.171875,4.125 L28.125,4.125 L28.125,5 Z" id="folder-add---anticon" fill="#999999"></path>
    </g>
</svg>